<svg id="Layer_1" xmlns="http://www.w3.org/2000/svg" viewBox="0 0 32 32">
    <style>.st1{fill:#fff}</style>
    <circle cx="16" cy="16" r="16" fill="#f3ba2c" />
    <path class="st1"
        d="M11.2 14L16 9.2l4.8 4.8 2.8-2.8L16 3.6l-7.6 7.6 2.8 2.8m-7.6 2l2.8-2.8L9.2 16l-2.8 2.8L3.6 16zm7.6 2l4.8 4.8 4.8-4.8 2.8 2.8-7.6 7.6-7.6-7.6 2.8-2.8m11.6-2l2.8-2.8 2.8 2.8-2.8 2.8-2.8-2.8z" />
    <path class="st1" d="M18.8 16L16 13.2l-2.1 2.1-.2.2-.5.5 2.8 2.8 2.8-2.8" />
</svg>